matrix_mac_3x3.vcd
$date
	Fri Oct 17 05:08:33 2025
$end
$version
	Icarus Verilog
$end
$timescale
	1ps
$end
$scope module tb_matrix_mac_3x3 $end
$var wire 1 ! done $end
$var reg 1 " clk $end
$var reg 1 # reset $end
$var reg 1 $ start $end
$scope module uut $end
$var wire 1 " clk $end
$var wire 1 # reset $end
$var wire 1 $ start $end
$var parameter 32 % N $end
$var reg 8 & A_val [7:0] $end
$var reg 8 ' B_val [7:0] $end
$var reg 32 ( acc [31:0] $end
$var reg 1 ! done $end
$var reg 2 ) i [1:0] $end
$var reg 2 * j [1:0] $end
$var reg 2 + k [1:0] $end
$var reg 3 , state [2:0] $end
$upscope $end
$upscope $end
$enddefinitions $end
$comment Show the parameter values. $end
$dumpall
b11 %
$end
#0
$dumpvars
b0 ,
b0 +
b0 *
b0 )
b0 (
bx '
bx &
0$
1#
0"
0!
$end
#5000
1"
#10000
0"
0#
#15000
1"
#20000
0"
1$
#25000
b1 ,
1"
#30000
0"
0$
#35000
b10 ,
b1001 '
b1 &
1"
#40000
0"
#45000
b11 ,
b1001 (
1"
#50000
0"
#55000
b1 ,
b1 +
1"
#60000
0"
#65000
b10 ,
b1 '
b10 &
1"
#70000
0"
#75000
b11 ,
b1011 (
1"
#80000
0"
#85000
b1 ,
b10 +
1"
#90000
0"
#95000
b10 ,
b11 &
1"
#100000
0"
#105000
b11 ,
b1110 (
1"
#110000
0"
#115000
b100 ,
1"
#120000
0"
#125000
b101 ,
b0 +
b0 (
1"
#130000
0"
#135000
b1 ,
b1 *
1"
#140000
0"
#145000
b10 ,
b1 &
1"
#150000
0"
#155000
b11 ,
b1 (
1"
#160000
0"
#165000
b1 ,
b1 +
1"
#170000
0"
#175000
b10 ,
b10 &
1"
#180000
0"
#185000
b11 ,
b11 (
1"
#190000
0"
#195000
b1 ,
b10 +
1"
#200000
0"
#205000
b10 ,
b11 &
1"
#210000
0"
#215000
b11 ,
b110 (
1"
#220000
0"
#225000
b100 ,
1"
#230000
0"
#235000
b101 ,
b0 +
b0 (
1"
#240000
0"
#245000
b1 ,
b10 *
1"
#250000
0"
#255000
b10 ,
b1 &
1"
#260000
0"
#265000
b11 ,
b1 (
1"
#270000
0"
#275000
b1 ,
b1 +
1"
#280000
0"
#285000
b10 ,
b100 '
b10 &
1"
#290000
0"
#295000
b11 ,
b1001 (
1"
#300000
0"
#305000
b1 ,
b10 +
1"
#310000
0"
#315000
b10 ,
b1 '
b11 &
1"
#320000
0"
#325000
b11 ,
b1100 (
1"
#330000
0"
#335000
b100 ,
1"
#340000
0"
#345000
b101 ,
b0 +
b0 (
1"
#350000
0"
#355000
b1 ,
b0 *
b1 )
1"
#360000
0"
#365000
b10 ,
b1001 '
b100 &
1"
#370000
0"
#375000
b11 ,
b100100 (
1"
#380000
0"
#385000
b1 ,
b1 +
1"
#390000
0"
#395000
b10 ,
b1 '
b101 &
1"
#400000
0"
#405000
b11 ,
b101001 (
1"
#410000
0"
#415000
b1 ,
b10 +
1"
#420000
0"
#425000
b10 ,
b110 &
1"
#430000
0"
#435000
b11 ,
b101111 (
1"
#440000
0"
#445000
b100 ,
1"
#450000
0"
#455000
b101 ,
b0 +
b0 (
1"
#460000
0"
#465000
b1 ,
b1 *
1"
#470000
0"
#475000
b10 ,
b100 &
1"
#480000
0"
#485000
b11 ,
b100 (
1"
#490000
0"
#495000
b1 ,
b1 +
1"
#500000
0"
#505000
b10 ,
b101 &
1"
#510000
0"
#515000
b11 ,
b1001 (
1"
#520000
0"
#525000
b1 ,
b10 +
1"
#530000
0"
#535000
b10 ,
b110 &
1"
#540000
0"
#545000
b11 ,
b1111 (
1"
#550000
0"
#555000
b100 ,
1"
#560000
0"
#565000
b101 ,
b0 +
b0 (
1"
#570000
0"
#575000
b1 ,
b10 *
1"
#580000
0"
#585000
b10 ,
b100 &
1"
#590000
0"
#595000
b11 ,
b100 (
1"
#600000
0"
#605000
b1 ,
b1 +
1"
#610000
0"
#615000
b10 ,
b100 '
b101 &
1"
#620000
0"
#625000
b11 ,
b11000 (
1"
#630000
0"
#635000
b1 ,
b10 +
1"
#640000
0"
#645000
b10 ,
b1 '
b110 &
1"
#650000
0"
#655000
b11 ,
b11110 (
1"
#660000
0"
#665000
b100 ,
1"
#670000
0"
#675000
b101 ,
b0 +
b0 (
1"
#680000
0"
#685000
b1 ,
b0 *
b10 )
1"
#690000
0"
#695000
b10 ,
b1001 '
b111 &
1"
#700000
0"
#705000
b11 ,
b111111 (
1"
#710000
0"
#715000
b1 ,
b1 +
1"
#720000
0"
#725000
b10 ,
b1 '
b1 &
1"
#730000
0"
#735000
b11 ,
b1000000 (
1"
#740000
0"
#745000
b1 ,
b10 +
1"
#750000
0"
#755000
b10 ,
b1001 &
1"
#760000
0"
#765000
b11 ,
b1001001 (
1"
#770000
0"
#775000
b100 ,
1"
#780000
0"
#785000
b101 ,
b0 +
b0 (
1"
#790000
0"
#795000
b1 ,
b1 *
1"
#800000
0"
#805000
b10 ,
b111 &
1"
#810000
0"
#815000
b11 ,
b111 (
1"
#820000
0"
#825000
b1 ,
b1 +
1"
#830000
0"
#835000
b10 ,
b1 &
1"
#840000
0"
#845000
b11 ,
b1000 (
1"
#850000
0"
#855000
b1 ,
b10 +
1"
#860000
0"
#865000
b10 ,
b1001 &
1"
#870000
0"
#875000
b11 ,
b10001 (
1"
#880000
0"
#885000
b100 ,
1"
#890000
0"
#895000
b101 ,
b0 +
b0 (
1"
#900000
0"
#905000
b1 ,
b10 *
1"
#910000
0"
#915000
b10 ,
b111 &
1"
#920000
0"
#925000
b11 ,
b111 (
1"
#930000
0"
#935000
b1 ,
b1 +
1"
#940000
0"
#945000
b10 ,
b100 '
b1 &
1"
#950000
0"
#955000
b11 ,
b1011 (
1"
#960000
0"
#965000
b1 ,
b10 +
1"
#970000
0"
#975000
b10 ,
b1 '
b1001 &
1"
#980000
0"
#985000
b11 ,
b10100 (
1"
#990000
0"
#995000
b100 ,
1"
#1000000
0"
#1005000
b101 ,
b0 +
b0 (
1"
#1010000
0"
#1015000
b110 ,
1"
#1020000
0"
#1025000
b0 ,
1!
1"
#1030000
0"
#1035000
0!
1"
